Manipulando datos
…
Muchas veces querremos trabajar con información que se deriva de los
datos originales. Esto se suele hacer añadiendo una nueva columna. Lo
hacemos con la función mutate().

Podemos añadir una nueva variable (llamada prop) que
represente la proporción de ensayos en cada localidad
con el uso de mutate().

cultivares %>% 
  group_by(Localidad) %>% 
  summarise(cantidad = n(),
            rendimiento_ajustado_medio = round(mean(Rendimiento_Ajustado, na.rm = TRUE), 2)) %>%
  mutate(prop = cantidad/nrow(cultivares))

## # A tibble: 58 × 4
##    Localidad cantidad rendimiento_ajustado_medio    prop
##    <chr>        <int>                      <dbl>   <dbl>
##  1 Anguil          21                      3156. 0.0421 
##  2 Ascasubi         5                      4996. 0.0100 
##  3 Asturias         7                      4216. 0.0140 
##  4 Balcarce        59                      2856. 0.118  
##  5 Barrow          34                      2665. 0.0681 
##  6 Bellocq         31                      3899. 0.0621 
##  7 Bolívar          5                      3931  0.0100 
##  8 Bordenave        3                      4624  0.00601
##  9 Bulnes          11                      2980. 0.0220 
## 10 Carhue           2                      2879  0.00401
## # ℹ 48 more rows
…
Podemos utilizar operadores lógicos (>,
<, >=, <=,
==) para crear condiciones a partir de variables numéricas.
Estos operadores también son útiles para fechas y cadenas de texto. El
siguiente código aplica una condición (“que sea igual a”) para datos de
tipo texto (la columna especie).

cultivares %>% 
  filter(Cultivar == "ACA 861")

## # A tibble: 185 × 21
##    Cultivar Empresa Floracion_dias Altura_cm Densidad_sem Rendimiento
##    <chr>    <chr>            <dbl>     <dbl>        <dbl>       <dbl>
##  1 ACA 861  ACA                 62       181        66229        4571
##  2 ACA 861  ACA                 68       129        53345        2598
##  3 ACA 861  ACA                 74       149        54286        2902
##  4 ACA 861  ACA                 73       156        42682        3097
##  5 ACA 861  ACA                 61       155        44818        3316
##  6 ACA 861  ACA                 68        NA        44193        4140
##  7 ACA 861  ACA                 69       167        40001        4201
##  8 ACA 861  ACA                 69       168        40650        3200
##  9 ACA 861  ACA                 72       173        56260        3858
## 10 ACA 861  ACA                 71        NA        52858        4464
## # ℹ 175 more rows
## # ℹ 15 more variables: Aceite_porcentaje <dbl>, Rendimiento_Ajustado <dbl>,
## #   Campania <chr>, Localidad <chr>, Latitud <dbl>, Longitud <dbl>,
## #   Ensayo <chr>, `Tipo Ensayo` <chr>, Epoca <chr>, Distancia_surcos <dbl>,
## #   Tipo_Siembra <chr>, Densidad_siembra <dbl>, Fecha_Siembra <chr>,
## #   Testigo <chr>, Visible <chr>
…
